{
	"info": {
		"_postman_id": "62917705-9a72-4a4d-84a0-44caaa5e07ad",
		"name": "authentication methods",
		"schema": "https://schema.getpostman.com/json/collection/v2.1.0/collection.json"
	},
	"item": [
		{
			"name": "netid access",
			"item": [
				{
					"name": "sign",
					"item": [
						{
							"name": "netid_access sign (this device)",
							"request": {
								"method": "POST",
								"header": [
									{
										"key": "Content-Type",
										"value": "application/x-www-form-urlencoded"
									},
									{
										"key": "Accept",
										"value": "*/*"
									}
								],
								"body": {
									"mode": "urlencoded",
									"urlencoded": [
										{
											"key": "callbackUrl",
											"value": "https://yourdomain.com/callback",
											"type": "text"
										},
										{
											"key": "userNonVisibleData",
											"value": "{% base64 'encode', 'normal', 'VEVTVA' %}",
											"type": "text"
										},
										{
											"key": "userVisibleData",
											"value": "{% base64 'encode', 'normal', 'VEVTVA' %}",
											"type": "text"
										}
									]
								},
								"url": {
									"raw": "{{Server 1}}/?apiKey=API_KEY&authenticateServiceKey=SERVICE_KEY",
									"host": [
										"{{Server 1}}"
									],
									"path": [
										""
									],
									"query": [
										{
											"key": "apiKey",
											"value": "API_KEY"
										},
										{
											"key": "authenticateServiceKey",
											"value": "SERVICE_KEY"
										}
									]
								}
							},
							"response": [
								{
									"name": "Response_200",
									"originalRequest": {
										"method": "POST",
										"header": [
											{
												"key": "Content-Type",
												"value": "application/x-www-form-urlencoded"
											},
											{
												"key": "Accept",
												"value": "*/*"
											}
										],
										"body": {
											"mode": "urlencoded",
											"urlencoded": [
												{
													"key": "callbackUrl",
													"value": "https://localhost/example",
													"type": "text"
												},
												{
													"key": "userNonVisibleData",
													"value": "{% base64 'encode', 'normal', 'VEVTVA' %}",
													"type": "text"
												},
												{
													"key": "userVisibleData",
													"value": "{% base64 'encode', 'normal', 'VEVTVA' %}",
													"type": "text"
												}
											]
										},
										"url": {
											"raw": "{{Server 1}}/?apiKey=API_KEY&authenticateServiceKey=SERVICE_KEY",
											"host": [
												"{{Server 1}}"
											],
											"path": [
												""
											],
											"query": [
												{
													"key": "apiKey",
													"value": "API_KEY"
												},
												{
													"key": "authenticateServiceKey",
													"value": "SERVICE_KEY"
												}
											]
										}
									},
									"code": 200,
									"_postman_previewlanguage": "Text",
									"header": [],
									"cookie": [],
									"body": ""
								}
							]
						},
						{
							"name": "netid_access sign (other device)",
							"request": {
								"method": "POST",
								"header": [
									{
										"key": "Content-Type",
										"value": "application/x-www-form-urlencoded"
									},
									{
										"key": "Accept",
										"value": "*/*"
									}
								],
								"body": {
									"mode": "urlencoded",
									"urlencoded": [
										{
											"key": "callbackUrl",
											"value": "https://yourdomain.com/callback",
											"type": "text"
										},
										{
											"key": "userNonVisibleData",
											"value": "{% base64 'encode', 'normal', 'VEVTVA' %}",
											"type": "text"
										},
										{
											"key": "userVisibleData",
											"value": "{% base64 'encode', 'normal', 'VEVTVA' %}",
											"type": "text"
										}
									]
								},
								"url": {
									"raw": "{{Server 1}}/?apiKey=API_KEY&authenticateServiceKey=SERVICE_KEY",
									"host": [
										"{{Server 1}}"
									],
									"path": [
										""
									],
									"query": [
										{
											"key": "apiKey",
											"value": "API_KEY"
										},
										{
											"key": "authenticateServiceKey",
											"value": "SERVICE_KEY"
										}
									]
								}
							},
							"response": [
								{
									"name": "Response_200",
									"originalRequest": {
										"method": "POST",
										"header": [
											{
												"key": "Content-Type",
												"value": "application/x-www-form-urlencoded"
											},
											{
												"key": "Accept",
												"value": "*/*"
											}
										],
										"body": {
											"mode": "urlencoded",
											"urlencoded": [
												{
													"key": "callbackUrl",
													"value": "https://localhost/example",
													"type": "text"
												},
												{
													"key": "userNonVisibleData",
													"value": "{% base64 'encode', 'normal', 'VEVTVA' %}",
													"type": "text"
												},
												{
													"key": "userVisibleData",
													"value": "{% base64 'encode', 'normal', 'VEVTVA' %}",
													"type": "text"
												}
											]
										},
										"url": {
											"raw": "{{Server 1}}/?apiKey=API_KEY&authenticateServiceKey=SERVICE_KEY",
											"host": [
												"{{Server 1}}"
											],
											"path": [
												""
											],
											"query": [
												{
													"key": "apiKey",
													"value": "API_KEY"
												},
												{
													"key": "authenticateServiceKey",
													"value": "SERVICE_KEY"
												}
											]
										}
									},
									"code": 200,
									"_postman_previewlanguage": "Text",
									"header": [],
									"cookie": [],
									"body": ""
								}
							]
						},
						{
							"name": "netid_access sign (device choice)",
							"request": {
								"method": "POST",
								"header": [
									{
										"key": "Content-Type",
										"value": "application/x-www-form-urlencoded"
									},
									{
										"key": "Accept",
										"value": "*/*"
									}
								],
								"body": {
									"mode": "urlencoded",
									"urlencoded": [
										{
											"key": "callbackUrl",
											"value": "https://yourdomain.com/callback",
											"type": "text"
										},
										{
											"key": "userNonVisibleData",
											"value": "{% base64 'encode', 'normal', 'VEVTVA' %}",
											"type": "text"
										},
										{
											"key": "userVisibleData",
											"value": "{% base64 'encode', 'normal', 'VEVTVA' %}",
											"type": "text"
										}
									]
								},
								"url": {
									"raw": "{{client_url}}?apiKey={{api_key}}&authenticateServiceKey={{netid_access_sign_key_choice_dev}}",
									"host": [
										"{{client_url}}"
									],
									"query": [
										{
											"key": "apiKey",
											"value": "{{api_key}}"
										},
										{
											"key": "authenticateServiceKey",
											"value": "{{netid_access_sign_key_choice_dev}}"
										}
									]
								}
							},
							"response": [
								{
									"name": "Response_200",
									"originalRequest": {
										"method": "POST",
										"header": [
											{
												"key": "Content-Type",
												"value": "application/x-www-form-urlencoded"
											},
											{
												"key": "Accept",
												"value": "*/*"
											}
										],
										"body": {
											"mode": "urlencoded",
											"urlencoded": [
												{
													"key": "callbackUrl",
													"value": "https://localhost/example",
													"type": "text"
												},
												{
													"key": "userNonVisibleData",
													"value": "{% base64 'encode', 'normal', 'VEVTVA' %}",
													"type": "text"
												},
												{
													"key": "userVisibleData",
													"value": "{% base64 'encode', 'normal', 'VEVTVA' %}",
													"type": "text"
												}
											]
										},
										"url": {
											"raw": "{{client_url}}?apiKey={{api_key}}&authenticateServiceKey={{netid_access_sign_key_choice_dev}}",
											"host": [
												"{{client_url}}"
											],
											"query": [
												{
													"key": "apiKey",
													"value": "{{api_key}}"
												},
												{
													"key": "authenticateServiceKey",
													"value": "{{netid_access_sign_key_choice_dev}}"
												}
											]
										}
									},
									"code": 200,
									"_postman_previewlanguage": "Text",
									"header": [],
									"cookie": [],
									"body": ""
								}
							]
						}
					],
					"protocolProfileBehavior": {},
					"_postman_isSubFolder": true
				},
				{
					"name": "auth",
					"item": [
						{
							"name": "netid_access (device choice)",
							"request": {
								"method": "POST",
								"header": [
									{
										"key": "Content-Type",
										"value": "application/x-www-form-urlencoded"
									},
									{
										"key": "Accept",
										"value": "*/*"
									}
								],
								"body": {
									"mode": "urlencoded",
									"urlencoded": [
										{
											"key": "callbackUrl",
											"value": "https://yourdomain.com/callback",
											"type": "text"
										}
									]
								},
								"url": {
									"raw": "{{Server 1}}/?apiKey=API_KEY&authenticateServiceKey=SERVICE_KEY",
									"host": [
										"{{Server 1}}"
									],
									"path": [
										""
									],
									"query": [
										{
											"key": "apiKey",
											"value": "API_KEY"
										},
										{
											"key": "authenticateServiceKey",
											"value": "SERVICE_KEY"
										}
									]
								}
							},
							"response": [
								{
									"name": "Response_200",
									"originalRequest": {
										"method": "POST",
										"header": [
											{
												"key": "Content-Type",
												"value": "application/x-www-form-urlencoded"
											},
											{
												"key": "Accept",
												"value": "*/*"
											}
										],
										"body": {
											"mode": "urlencoded",
											"urlencoded": [
												{
													"key": "callbackUrl",
													"value": "https://localhost/example",
													"type": "text"
												}
											]
										},
										"url": {
											"raw": "{{Server 1}}/?apiKey=API_KEY&authenticateServiceKey=SERVICE_KEY",
											"host": [
												"{{Server 1}}"
											],
											"path": [
												""
											],
											"query": [
												{
													"key": "apiKey",
													"value": "API_KEY"
												},
												{
													"key": "authenticateServiceKey",
													"value": "SERVICE_KEY"
												}
											]
										}
									},
									"code": 200,
									"_postman_previewlanguage": "Text",
									"header": [],
									"cookie": [],
									"body": ""
								}
							]
						},
						{
							"name": "netid_access (other device)",
							"request": {
								"method": "POST",
								"header": [
									{
										"key": "Content-Type",
										"value": "application/x-www-form-urlencoded"
									},
									{
										"key": "Accept",
										"value": "*/*"
									}
								],
								"body": {
									"mode": "urlencoded",
									"urlencoded": [
										{
											"key": "callbackUrl",
											"value": "https://yourdomain.com/callback",
											"type": "text"
										}
									]
								},
								"url": {
									"raw": "{{Server 1}}/?apiKey=API_KEY&authenticateServiceKey=SERVICE_KEY",
									"host": [
										"{{Server 1}}"
									],
									"path": [
										""
									],
									"query": [
										{
											"key": "apiKey",
											"value": "API_KEY"
										},
										{
											"key": "authenticateServiceKey",
											"value": "SERVICE_KEY"
										}
									]
								}
							},
							"response": [
								{
									"name": "Response_200",
									"originalRequest": {
										"method": "POST",
										"header": [
											{
												"key": "Content-Type",
												"value": "application/x-www-form-urlencoded"
											},
											{
												"key": "Accept",
												"value": "*/*"
											}
										],
										"body": {
											"mode": "urlencoded",
											"urlencoded": [
												{
													"key": "callbackUrl",
													"value": "https://localhost/example",
													"type": "text"
												}
											]
										},
										"url": {
											"raw": "{{Server 1}}/?apiKey=API_KEY&authenticateServiceKey=SERVICE_KEY",
											"host": [
												"{{Server 1}}"
											],
											"path": [
												""
											],
											"query": [
												{
													"key": "apiKey",
													"value": "API_KEY"
												},
												{
													"key": "authenticateServiceKey",
													"value": "SERVICE_KEY"
												}
											]
										}
									},
									"code": 200,
									"_postman_previewlanguage": "Text",
									"header": [],
									"cookie": [],
									"body": ""
								}
							]
						},
						{
							"name": "netid_access (this device)",
							"request": {
								"method": "POST",
								"header": [
									{
										"key": "Content-Type",
										"value": "application/x-www-form-urlencoded"
									},
									{
										"key": "Accept",
										"value": "*/*"
									}
								],
								"body": {
									"mode": "urlencoded",
									"urlencoded": [
										{
											"key": "callbackUrl",
											"value": "https://yourdomain.com/callback",
											"type": "text"
										}
									]
								},
								"url": {
									"raw": "{{Server 1}}/?apiKey=API_KEY&authenticateServiceKey=SERVICE_KEY",
									"host": [
										"{{Server 1}}"
									],
									"path": [
										""
									],
									"query": [
										{
											"key": "apiKey",
											"value": "API_KEY"
										},
										{
											"key": "authenticateServiceKey",
											"value": "SERVICE_KEY"
										}
									]
								}
							},
							"response": [
								{
									"name": "Response_200",
									"originalRequest": {
										"method": "POST",
										"header": [
											{
												"key": "Content-Type",
												"value": "application/x-www-form-urlencoded"
											},
											{
												"key": "Accept",
												"value": "*/*"
											}
										],
										"body": {
											"mode": "urlencoded",
											"urlencoded": [
												{
													"key": "callbackUrl",
													"value": "https://localhost/example",
													"type": "text"
												}
											]
										},
										"url": {
											"raw": "{{Server 1}}/?apiKey=API_KEY&authenticateServiceKey=SERVICE_KEY",
											"host": [
												"{{Server 1}}"
											],
											"path": [
												""
											],
											"query": [
												{
													"key": "apiKey",
													"value": "API_KEY"
												},
												{
													"key": "authenticateServiceKey",
													"value": "SERVICE_KEY"
												}
											]
										}
									},
									"code": 200,
									"_postman_previewlanguage": "Text",
									"header": [],
									"cookie": [],
									"body": ""
								}
							]
						}
					],
					"protocolProfileBehavior": {},
					"_postman_isSubFolder": true
				}
			],
			"protocolProfileBehavior": {}
		},
		{
			"name": "netid enterprise",
			"item": [
				{
					"name": "authentication",
					"request": {
						"method": "POST",
						"header": [
							{
								"key": "Content-Type",
								"value": "application/x-www-form-urlencoded"
							},
							{
								"key": "Accept",
								"value": "*/*"
							}
						],
						"body": {
							"mode": "urlencoded",
							"urlencoded": [
								{
									"key": "callbackUrl",
									"value": "https://yourdomain.com/callback",
									"type": "text"
								}
							]
						},
						"url": {
							"raw": "{{Server 1}}/?apiKey=API_KEY&authenticateServiceKey=SERVICE_KEY",
							"host": [
								"{{Server 1}}"
							],
							"path": [
								""
							],
							"query": [
								{
									"key": "apiKey",
									"value": "API_KEY"
								},
								{
									"key": "authenticateServiceKey",
									"value": "SERVICE_KEY"
								}
							]
						}
					},
					"response": [
						{
							"name": "Response_200",
							"originalRequest": {
								"method": "POST",
								"header": [
									{
										"key": "Content-Type",
										"value": "application/x-www-form-urlencoded"
									},
									{
										"key": "Accept",
										"value": "*/*"
									}
								],
								"body": {
									"mode": "urlencoded",
									"urlencoded": [
										{
											"key": "callbackUrl",
											"value": "https://localhost/example",
											"type": "text"
										}
									]
								},
								"url": {
									"raw": "{{Server 1}}/?apiKey=API_KEY&authenticateServiceKey=SERVICE_KEY",
									"host": [
										"{{Server 1}}"
									],
									"path": [
										""
									],
									"query": [
										{
											"key": "apiKey",
											"value": "API_KEY"
										},
										{
											"key": "authenticateServiceKey",
											"value": "SERVICE_KEY"
										}
									]
								}
							},
							"code": 200,
							"_postman_previewlanguage": "Text",
							"header": [],
							"cookie": [],
							"body": ""
						}
					]
				}
			],
			"protocolProfileBehavior": {}
		},
		{
			"name": "bankid",
			"item": [
				{
					"name": "auth",
					"item": [
						{
							"name": "bankid auth (other device)",
							"request": {
								"method": "POST",
								"header": [
									{
										"key": "Content-Type",
										"value": "application/x-www-form-urlencoded"
									},
									{
										"key": "Accept",
										"value": "*/*"
									}
								],
								"body": {
									"mode": "urlencoded",
									"urlencoded": [
										{
											"key": "thisDevice",
											"value": "false",
											"type": "text"
										},
										{
											"key": "mobileBankId",
											"value": "true",
											"type": "text"
										},
										{
											"key": "askForSSN",
											"value": "true",
											"type": "text"
										},
										{
											"key": "callbackUrl",
											"value": "https://localhost/example",
											"type": "text"
										},
										{
											"key": "deviceChoice",
											"value": "false",
											"type": "text"
										}
									]
								},
								"url": {
									"raw": "{{Server 1}}/?apiKey=API_KEY&authenticateServiceKey=SERVICE_KEY",
									"host": [
										"{{Server 1}}"
									],
									"path": [
										""
									],
									"query": [
										{
											"key": "apiKey",
											"value": "API_KEY"
										},
										{
											"key": "authenticateServiceKey",
											"value": "SERVICE_KEY"
										}
									]
								}
							},
							"response": [
								{
									"name": "Response_200",
									"originalRequest": {
										"method": "POST",
										"header": [
											{
												"key": "Content-Type",
												"value": "application/x-www-form-urlencoded"
											},
											{
												"key": "Accept",
												"value": "*/*"
											}
										],
										"body": {
											"mode": "urlencoded",
											"urlencoded": [
												{
													"key": "thisDevice",
													"value": "false",
													"type": "text"
												},
												{
													"key": "mobileBankId",
													"value": "true",
													"type": "text"
												},
												{
													"key": "askForSSN",
													"value": "true",
													"type": "text"
												},
												{
													"key": "callbackUrl",
													"value": "https://localhost/example",
													"type": "text"
												},
												{
													"key": "deviceChoice",
													"value": "false",
													"type": "text"
												}
											]
										},
										"url": {
											"raw": "{{Server 1}}/?apiKey=API_KEY&authenticateServiceKey=SERVICE_KEY",
											"host": [
												"{{Server 1}}"
											],
											"path": [
												""
											],
											"query": [
												{
													"key": "apiKey",
													"value": "API_KEY"
												},
												{
													"key": "authenticateServiceKey",
													"value": "SERVICE_KEY"
												}
											]
										}
									},
									"code": 200,
									"_postman_previewlanguage": "Text",
									"header": [],
									"cookie": [],
									"body": ""
								}
							]
						},
						{
							"name": " bankid auth (device choice)",
							"request": {
								"method": "POST",
								"header": [
									{
										"key": "Content-Type",
										"value": "application/x-www-form-urlencoded"
									},
									{
										"key": "Accept",
										"value": "*/*"
									}
								],
								"body": {
									"mode": "urlencoded",
									"urlencoded": [
										{
											"key": "thisDevice",
											"value": "false",
											"type": "text"
										},
										{
											"key": "mobileBankId",
											"value": "true",
											"type": "text"
										},
										{
											"key": "askForSSN",
											"value": "true",
											"type": "text"
										},
										{
											"key": "callbackUrl",
											"value": "https://yourdomain.com/callback",
											"type": "text"
										},
										{
											"key": "deviceChoice",
											"value": "true",
											"type": "text"
										}
									]
								},
								"url": {
									"raw": "{{Server 1}}/?apiKey=API_KEY&authenticateServiceKey=SERVICE_KEY",
									"host": [
										"{{Server 1}}"
									],
									"path": [
										""
									],
									"query": [
										{
											"key": "apiKey",
											"value": "API_KEY"
										},
										{
											"key": "authenticateServiceKey",
											"value": "SERVICE_KEY"
										}
									]
								}
							},
							"response": [
								{
									"name": "Response_200",
									"originalRequest": {
										"method": "POST",
										"header": [
											{
												"key": "Content-Type",
												"value": "application/x-www-form-urlencoded"
											},
											{
												"key": "Accept",
												"value": "*/*"
											}
										],
										"body": {
											"mode": "urlencoded",
											"urlencoded": [
												{
													"key": "thisDevice",
													"value": "false",
													"type": "text"
												},
												{
													"key": "mobileBankId",
													"value": "true",
													"type": "text"
												},
												{
													"key": "askForSSN",
													"value": "true",
													"type": "text"
												},
												{
													"key": "callbackUrl",
													"value": "https://localhost/example",
													"type": "text"
												},
												{
													"key": "deviceChoice",
													"value": "true",
													"type": "text"
												}
											]
										},
										"url": {
											"raw": "{{Server 1}}/?apiKey=API_KEY&authenticateServiceKey=SERVICE_KEY",
											"host": [
												"{{Server 1}}"
											],
											"path": [
												""
											],
											"query": [
												{
													"key": "apiKey",
													"value": "API_KEY"
												},
												{
													"key": "authenticateServiceKey",
													"value": "SERVICE_KEY"
												}
											]
										}
									},
									"code": 200,
									"_postman_previewlanguage": "Text",
									"header": [],
									"cookie": [],
									"body": ""
								}
							]
						},
						{
							"name": "BankiD (this device)",
							"request": {
								"method": "POST",
								"header": [
									{
										"key": "Content-Type",
										"value": "application/x-www-form-urlencoded"
									},
									{
										"key": "Accept",
										"value": "*/*"
									}
								],
								"body": {
									"mode": "urlencoded",
									"urlencoded": [
										{
											"key": "callbackUrl",
											"value": "https://yourdomain.com/callback",
											"type": "text"
										},
										{
											"key": "thisDevice",
											"value": "true",
											"type": "text"
										}
									]
								},
								"url": {
									"raw": "{{Server 1}}/?apiKey=API_KEY&authenticateServiceKey=SERVICE_KEY",
									"host": [
										"{{Server 1}}"
									],
									"path": [
										""
									],
									"query": [
										{
											"key": "apiKey",
											"value": "API_KEY"
										},
										{
											"key": "authenticateServiceKey",
											"value": "SERVICE_KEY"
										}
									]
								}
							},
							"response": [
								{
									"name": "Response_200",
									"originalRequest": {
										"method": "POST",
										"header": [
											{
												"key": "Content-Type",
												"value": "application/x-www-form-urlencoded"
											},
											{
												"key": "Accept",
												"value": "*/*"
											}
										],
										"body": {
											"mode": "urlencoded",
											"urlencoded": [
												{
													"key": "callbackUrl",
													"value": "https://localhost/example",
													"type": "text"
												},
												{
													"key": "thisDevice",
													"value": "true",
													"type": "text"
												}
											]
										},
										"url": {
											"raw": "{{Server 1}}/?apiKey=API_KEY&authenticateServiceKey=SERVICE_KEY",
											"host": [
												"{{Server 1}}"
											],
											"path": [
												""
											],
											"query": [
												{
													"key": "apiKey",
													"value": "API_KEY"
												},
												{
													"key": "authenticateServiceKey",
													"value": "SERVICE_KEY"
												}
											]
										}
									},
									"code": 200,
									"_postman_previewlanguage": "Text",
									"header": [],
									"cookie": [],
									"body": ""
								}
							]
						},
						{
							"name": "Mobile BankiD with qr",
							"request": {
								"method": "POST",
								"header": [
									{
										"key": "Content-Type",
										"value": "application/x-www-form-urlencoded"
									},
									{
										"key": "Accept",
										"value": "*/*"
									}
								],
								"body": {
									"mode": "urlencoded",
									"urlencoded": [
										{
											"key": "thisDevice",
											"value": "false",
											"type": "text"
										},
										{
											"key": "mobileBankId",
											"value": "true",
											"type": "text"
										},
										{
											"key": "callbackUrl",
											"value": "https://yourdomain.com/callback",
											"type": "text"
										},
										{
											"key": "qr",
											"value": "true",
											"type": "text"
										},
										{
											"key": "deviceChoice",
											"value": "false",
											"type": "text"
										},
										{
											"key": "askForSSN",
											"value": "true",
											"type": "text"
										}
									]
								},
								"url": {
									"raw": "{{Server 1}}/?apiKey=API_KEY&authenticateServiceKey=SERVICE_KEY",
									"host": [
										"{{Server 1}}"
									],
									"path": [
										""
									],
									"query": [
										{
											"key": "apiKey",
											"value": "API_KEY"
										},
										{
											"key": "authenticateServiceKey",
											"value": "SERVICE_KEY"
										}
									]
								}
							},
							"response": [
								{
									"name": "Response_200",
									"originalRequest": {
										"method": "POST",
										"header": [
											{
												"key": "Content-Type",
												"value": "application/x-www-form-urlencoded"
											},
											{
												"key": "Accept",
												"value": "*/*"
											}
										],
										"body": {
											"mode": "urlencoded",
											"urlencoded": [
												{
													"key": "thisDevice",
													"value": "false",
													"type": "text"
												},
												{
													"key": "mobileBankId",
													"value": "true",
													"type": "text"
												},
												{
													"key": "callbackUrl",
													"value": "https://localhost/example",
													"type": "text"
												},
												{
													"key": "qr",
													"value": "true",
													"type": "text"
												},
												{
													"key": "deviceChoice",
													"value": "false",
													"type": "text"
												},
												{
													"key": "askForSSN",
													"value": "true",
													"type": "text"
												}
											]
										},
										"url": {
											"raw": "{{Server 1}}/?apiKey=API_KEY&authenticateServiceKey=SERVICE_KEY",
											"host": [
												"{{Server 1}}"
											],
											"path": [
												""
											],
											"query": [
												{
													"key": "apiKey",
													"value": "API_KEY"
												},
												{
													"key": "authenticateServiceKey",
													"value": "SERVICE_KEY"
												}
											]
										}
									},
									"code": 200,
									"_postman_previewlanguage": "Text",
									"header": [],
									"cookie": [],
									"body": ""
								}
							]
						},
						{
							"name": "Mobile BankiD with ssn",
							"request": {
								"method": "POST",
								"header": [
									{
										"key": "Content-Type",
										"value": "application/x-www-form-urlencoded"
									},
									{
										"key": "Accept",
										"value": "*/*"
									}
								],
								"body": {
									"mode": "urlencoded",
									"urlencoded": [
										{
											"key": "thisDevice",
											"value": "false",
											"type": "text"
										},
										{
											"key": "mobileBankId",
											"value": "true",
											"type": "text"
										},
										{
											"key": "askForSSN",
											"value": "false",
											"type": "text"
										},
										{
											"key": "callbackUrl",
											"value": "https://yourdomain.com/callback",
											"type": "text"
										},
										{
											"key": "personalNumber",
											"value": "191111111111 ",
											"type": "text"
										}
									]
								},
								"url": {
									"raw": "{{Server 1}}/?apiKey=API_KEY&authenticateServiceKey=SERVICE_KEY",
									"host": [
										"{{Server 1}}"
									],
									"path": [
										""
									],
									"query": [
										{
											"key": "apiKey",
											"value": "API_KEY"
										},
										{
											"key": "authenticateServiceKey",
											"value": "SERVICE_KEY"
										}
									]
								}
							},
							"response": [
								{
									"name": "Response_200",
									"originalRequest": {
										"method": "POST",
										"header": [
											{
												"key": "Content-Type",
												"value": "application/x-www-form-urlencoded"
											},
											{
												"key": "Accept",
												"value": "*/*"
											}
										],
										"body": {
											"mode": "urlencoded",
											"urlencoded": [
												{
													"key": "thisDevice",
													"value": "false",
													"type": "text"
												},
												{
													"key": "mobileBankId",
													"value": "true",
													"type": "text"
												},
												{
													"key": "askForSSN",
													"value": "false",
													"type": "text"
												},
												{
													"key": "callbackUrl",
													"value": "https://localhost/example",
													"type": "text"
												},
												{
													"key": "personalNumber",
													"value": "191111111111 ",
													"type": "text"
												}
											]
										},
										"url": {
											"raw": "{{Server 1}}/?apiKey=API_KEY&authenticateServiceKey=SERVICE_KEY",
											"host": [
												"{{Server 1}}"
											],
											"path": [
												""
											],
											"query": [
												{
													"key": "apiKey",
													"value": "API_KEY"
												},
												{
													"key": "authenticateServiceKey",
													"value": "SERVICE_KEY"
												}
											]
										}
									},
									"code": 200,
									"_postman_previewlanguage": "Text",
									"header": [],
									"cookie": [],
									"body": ""
								}
							]
						}
					],
					"protocolProfileBehavior": {},
					"_postman_isSubFolder": true
				},
				{
					"name": "sign",
					"item": [
						{
							"name": "bankid sign  (device choice)",
							"request": {
								"method": "POST",
								"header": [
									{
										"key": "Content-Type",
										"value": "multipart/form-data"
									},
									{
										"key": "Accept",
										"value": "*/*"
									}
								],
								"body": {
									"mode": "urlencoded",
									"urlencoded": [
										{
											"key": "userVisibleData",
											"value": "{% base64 'encode', 'normal', 'hello world' %}",
											"type": "text"
										},
										{
											"key": "userNonVisibleData",
											"value": "{% base64 'encode', 'normal', 'hello world' %}",
											"type": "text"
										},
										{
											"key": "deviceChoice",
											"value": "true",
											"type": "text"
										},
										{
											"key": "callbackUrl",
											"value": "https://yourdomain.com/callback",
											"type": "text"
										},
										{
											"key": "thisDevice",
											"value": "true",
											"type": "text"
										},
										{
											"key": "askForSSN",
											"value": "true",
											"type": "text"
										}
									]
								},
								"url": {
									"raw": "{{Server 1}}/?apiKey=API_KEY&authenticateServiceKey=SERVICE_KEY",
									"host": [
										"{{Server 1}}"
									],
									"path": [
										""
									],
									"query": [
										{
											"key": "apiKey",
											"value": "API_KEY"
										},
										{
											"key": "authenticateServiceKey",
											"value": "SERVICE_KEY"
										}
									]
								}
							},
							"response": [
								{
									"name": "Response_200",
									"originalRequest": {
										"method": "POST",
										"header": [
											{
												"key": "Content-Type",
												"value": "multipart/form-data"
											},
											{
												"key": "Accept",
												"value": "*/*"
											}
										],
										"body": {
											"mode": "urlencoded",
											"urlencoded": [
												{
													"key": "userVisibleData",
													"value": "{% base64 'encode', 'normal', 'hello world' %}",
													"type": "text"
												},
												{
													"key": "userNonVisibleData",
													"value": "{% base64 'encode', 'normal', 'hello world' %}",
													"type": "text"
												},
												{
													"key": "deviceChoice",
													"value": "true",
													"type": "text"
												},
												{
													"key": "callbackUrl",
													"value": "https://google.com",
													"type": "text"
												},
												{
													"key": "thisDevice",
													"value": "true",
													"type": "text"
												},
												{
													"key": "askForSSN",
													"value": "true",
													"type": "text"
												}
											]
										},
										"url": {
											"raw": "{{Server 1}}/?apiKey=API_KEY&authenticateServiceKey=SERVICE_KEY",
											"host": [
												"{{Server 1}}"
											],
											"path": [
												""
											],
											"query": [
												{
													"key": "apiKey",
													"value": "API_KEY"
												},
												{
													"key": "authenticateServiceKey",
													"value": "SERVICE_KEY"
												}
											]
										}
									},
									"code": 200,
									"_postman_previewlanguage": "Text",
									"header": [],
									"cookie": [],
									"body": ""
								}
							]
						},
						{
							"name": "bankid sign  (this device)",
							"request": {
								"method": "POST",
								"header": [
									{
										"key": "Content-Type",
										"value": "multipart/form-data"
									},
									{
										"key": "Accept",
										"value": "*/*"
									}
								],
								"body": {
									"mode": "urlencoded",
									"urlencoded": [
										{
											"key": "userVisibleData",
											"value": "{% base64 'encode', 'normal', 'hello world' %}",
											"type": "text"
										},
										{
											"key": "userNonVisibleData",
											"value": "{% base64 'encode', 'normal', 'hello world' %}",
											"type": "text"
										},
										{
											"key": "callbackUrl",
											"value": "https://yourdomain.com/callback",
											"type": "text"
										},
										{
											"key": "thisDevice",
											"value": "true",
											"type": "text"
										}
									]
								},
								"url": {
									"raw": "{{Server 1}}/?apiKey=API_KEY&authenticateServiceKey=SERVICE_KEY",
									"host": [
										"{{Server 1}}"
									],
									"path": [
										""
									],
									"query": [
										{
											"key": "apiKey",
											"value": "API_KEY"
										},
										{
											"key": "authenticateServiceKey",
											"value": "SERVICE_KEY"
										}
									]
								}
							},
							"response": [
								{
									"name": "Response_200",
									"originalRequest": {
										"method": "POST",
										"header": [
											{
												"key": "Content-Type",
												"value": "multipart/form-data"
											},
											{
												"key": "Accept",
												"value": "*/*"
											}
										],
										"body": {
											"mode": "urlencoded",
											"urlencoded": [
												{
													"key": "userVisibleData",
													"value": "{% base64 'encode', 'normal', 'hello world' %}",
													"type": "text"
												},
												{
													"key": "userNonVisibleData",
													"value": "{% base64 'encode', 'normal', 'hello world' %}",
													"type": "text"
												},
												{
													"key": "callbackUrl",
													"value": "https://localhost/example",
													"type": "text"
												},
												{
													"key": "thisDevice",
													"value": "true",
													"type": "text"
												}
											]
										},
										"url": {
											"raw": "{{Server 1}}/?apiKey=API_KEY&authenticateServiceKey=SERVICE_KEY",
											"host": [
												"{{Server 1}}"
											],
											"path": [
												""
											],
											"query": [
												{
													"key": "apiKey",
													"value": "API_KEY"
												},
												{
													"key": "authenticateServiceKey",
													"value": "SERVICE_KEY"
												}
											]
										}
									},
									"code": 200,
									"_postman_previewlanguage": "Text",
									"header": [],
									"cookie": [],
									"body": ""
								}
							]
						},
						{
							"name": "bankid sign  (otherdevice)",
							"request": {
								"method": "POST",
								"header": [
									{
										"key": "Content-Type",
										"value": "multipart/form-data"
									},
									{
										"key": "Accept",
										"value": "*/*"
									}
								],
								"body": {
									"mode": "urlencoded",
									"urlencoded": [
										{
											"key": "userVisibleData",
											"value": "{% base64 'encode', 'normal', 'hello world' %}",
											"type": "text"
										},
										{
											"key": "userNonVisibleData",
											"value": "{% base64 'encode', 'normal', 'hello world' %}",
											"type": "text"
										},
										{
											"key": "callbackUrl",
											"value": "https://yourdomain.com/callback",
											"type": "text"
										},
										{
											"key": "thisDevice",
											"value": "false",
											"type": "text"
										},
										{
											"key": "deviceChoice",
											"value": "false",
											"type": "text"
										},
										{
											"key": "askForSSN",
											"value": "true",
											"type": "text"
										},
										{
											"key": "mobileBankId",
											"value": "true",
											"type": "text"
										}
									]
								},
								"url": {
									"raw": "{{client_url}}?apiKey={{api_key}}&authenticateServiceKey={{bankid_sign_key}}",
									"host": [
										"{{client_url}}"
									],
									"query": [
										{
											"key": "apiKey",
											"value": "{{api_key}}"
										},
										{
											"key": "authenticateServiceKey",
											"value": "{{bankid_sign_key}}"
										}
									]
								}
							},
							"response": [
								{
									"name": "Response_200",
									"originalRequest": {
										"method": "POST",
										"header": [
											{
												"key": "Content-Type",
												"value": "multipart/form-data"
											},
											{
												"key": "Accept",
												"value": "*/*"
											}
										],
										"body": {
											"mode": "urlencoded",
											"urlencoded": [
												{
													"key": "userVisibleData",
													"value": "{% base64 'encode', 'normal', 'hello world' %}",
													"type": "text"
												},
												{
													"key": "userNonVisibleData",
													"value": "{% base64 'encode', 'normal', 'hello world' %}",
													"type": "text"
												},
												{
													"key": "callbackUrl",
													"value": "https://localhost/example",
													"type": "text"
												},
												{
													"key": "thisDevice",
													"value": "false",
													"type": "text"
												},
												{
													"key": "deviceChoice",
													"value": "false",
													"type": "text"
												},
												{
													"key": "askForSSN",
													"value": "true",
													"type": "text"
												},
												{
													"key": "mobileBankId",
													"value": "true",
													"type": "text"
												}
											]
										},
										"url": {
											"raw": "{{client_url}}?apiKey={{api_key}}&authenticateServiceKey={{bankid_sign_key}}",
											"host": [
												"{{client_url}}"
											],
											"query": [
												{
													"key": "apiKey",
													"value": "{{api_key}}"
												},
												{
													"key": "authenticateServiceKey",
													"value": "{{bankid_sign_key}}"
												}
											]
										}
									},
									"code": 200,
									"_postman_previewlanguage": "Text",
									"header": [],
									"cookie": [],
									"body": ""
								}
							]
						}
					],
					"protocolProfileBehavior": {},
					"_postman_isSubFolder": true
				}
			],
			"protocolProfileBehavior": {}
		},
		{
			"name": "freja",
			"item": [
				{
					"name": "auth",
					"item": [
						{
							"name": "freja auth ssn with personal number",
							"request": {
								"method": "POST",
								"header": [
									{
										"key": "Content-Type",
										"value": "application/x-www-form-urlencoded"
									},
									{
										"key": "Accept",
										"value": "*/*"
									}
								],
								"body": {
									"mode": "urlencoded",
									"urlencoded": [
										{
											"key": "callbackUrl",
											"value": "https://yourdomain.com/callback",
											"type": "text"
										},
										{
											"key": "personalNumber",
											"value": "191111111111 ",
											"type": "text"
										}
									]
								},
								"url": {
									"raw": "{{Server 1}}/?apiKey=API_KEY&authenticateServiceKey=SERVICE_KEY",
									"host": [
										"{{Server 1}}"
									],
									"path": [
										""
									],
									"query": [
										{
											"key": "apiKey",
											"value": "API_KEY"
										},
										{
											"key": "authenticateServiceKey",
											"value": "SERVICE_KEY"
										}
									]
								}
							},
							"response": [
								{
									"name": "Response_200",
									"originalRequest": {
										"method": "POST",
										"header": [
											{
												"key": "Content-Type",
												"value": "application/x-www-form-urlencoded"
											},
											{
												"key": "Accept",
												"value": "*/*"
											}
										],
										"body": {
											"mode": "urlencoded",
											"urlencoded": [
												{
													"key": "callbackUrl",
													"value": "https://yourdomain.com/callback",
													"type": "text"
												},
												{
													"key": "personalNumber",
													"value": "191111111111 ",
													"type": "text"
												}
											]
										},
										"url": {
											"raw": "{{Server 1}}/?apiKey=API_KEY&authenticateServiceKey=SERVICE_KEY",
											"host": [
												"{{Server 1}}"
											],
											"path": [
												""
											],
											"query": [
												{
													"key": "apiKey",
													"value": "API_KEY"
												},
												{
													"key": "authenticateServiceKey",
													"value": "SERVICE_KEY"
												}
											]
										}
									},
									"code": 200,
									"_postman_previewlanguage": "Text",
									"header": [],
									"cookie": [],
									"body": ""
								}
							]
						},
						{
							"name": "freja auth email",
							"request": {
								"method": "POST",
								"header": [
									{
										"key": "Content-Type",
										"value": "application/x-www-form-urlencoded"
									},
									{
										"key": "Accept",
										"value": "*/*"
									}
								],
								"body": {
									"mode": "urlencoded",
									"urlencoded": [
										{
											"key": "callbackUrl",
											"value": "https://yourdomain.com/callback",
											"type": "text"
										},
										{
											"key": "userInfoType",
											"value": "EMAIL ",
											"type": "text"
										},
										{
											"key": "userInfo",
											"value": "userEmail@domain.com",
											"type": "text"
										}
									]
								},
								"url": {
									"raw": "{{Server 1}}/?apiKey=API_KEY&authenticateServiceKey=SERVICE_KEY",
									"host": [
										"{{Server 1}}"
									],
									"path": [
										""
									],
									"query": [
										{
											"key": "apiKey",
											"value": "API_KEY"
										},
										{
											"key": "authenticateServiceKey",
											"value": "SERVICE_KEY"
										}
									]
								}
							},
							"response": [
								{
									"name": "Response_200",
									"originalRequest": {
										"method": "POST",
										"header": [
											{
												"key": "Content-Type",
												"value": "application/x-www-form-urlencoded"
											},
											{
												"key": "Accept",
												"value": "*/*"
											}
										],
										"body": {
											"mode": "urlencoded",
											"urlencoded": [
												{
													"key": "callbackUrl",
													"value": "https://yourdomain.com/callback",
													"type": "text"
												},
												{
													"key": "userInfoType",
													"value": "EMAIL ",
													"type": "text"
												},
												{
													"key": "userInfo",
													"value": "userEmail@domain.com",
													"type": "text"
												}
											]
										},
										"url": {
											"raw": "{{Server 1}}/?apiKey=API_KEY&authenticateServiceKey=SERVICE_KEY",
											"host": [
												"{{Server 1}}"
											],
											"path": [
												""
											],
											"query": [
												{
													"key": "apiKey",
													"value": "API_KEY"
												},
												{
													"key": "authenticateServiceKey",
													"value": "SERVICE_KEY"
												}
											]
										}
									},
									"code": 200,
									"_postman_previewlanguage": "Text",
									"header": [],
									"cookie": [],
									"body": ""
								}
							]
						},
						{
							"name": "freja auth ssn with qr",
							"request": {
								"method": "POST",
								"header": [
									{
										"key": "Content-Type",
										"value": "application/x-www-form-urlencoded"
									},
									{
										"key": "Accept",
										"value": "*/*"
									}
								],
								"body": {
									"mode": "urlencoded",
									"urlencoded": [
										{
											"key": "userInfoType",
											"value": "SSN",
											"type": "text"
										},
										{
											"key": "qr",
											"value": "true",
											"type": "text"
										},
										{
											"key": "callbackUrl",
											"value": "https://yourdomain.com/callback",
											"type": "text"
										}
									]
								},
								"url": {
									"raw": "{{Server 1}}/?apiKey=API_KEY&authenticateServiceKey=SERVICE_KEY",
									"host": [
										"{{Server 1}}"
									],
									"path": [
										""
									],
									"query": [
										{
											"key": "apiKey",
											"value": "API_KEY"
										},
										{
											"key": "authenticateServiceKey",
											"value": "SERVICE_KEY"
										}
									]
								}
							},
							"response": [
								{
									"name": "Response_200",
									"originalRequest": {
										"method": "POST",
										"header": [
											{
												"key": "Content-Type",
												"value": "application/x-www-form-urlencoded"
											},
											{
												"key": "Accept",
												"value": "*/*"
											}
										],
										"body": {
											"mode": "urlencoded",
											"urlencoded": [
												{
													"key": "userInfoType",
													"value": "SSN",
													"type": "text"
												},
												{
													"key": "qr",
													"value": "true",
													"type": "text"
												},
												{
													"key": "callbackUrl",
													"value": "https://yourdomain.com/callback",
													"type": "text"
												}
											]
										},
										"url": {
											"raw": "{{Server 1}}/?apiKey=API_KEY&authenticateServiceKey=SERVICE_KEY",
											"host": [
												"{{Server 1}}"
											],
											"path": [
												""
											],
											"query": [
												{
													"key": "apiKey",
													"value": "API_KEY"
												},
												{
													"key": "authenticateServiceKey",
													"value": "SERVICE_KEY"
												}
											]
										}
									},
									"code": 200,
									"_postman_previewlanguage": "Text",
									"header": [],
									"cookie": [],
									"body": ""
								}
							]
						}
					],
					"protocolProfileBehavior": {},
					"_postman_isSubFolder": true
				},
				{
					"name": "sign",
					"item": [
						{
							"name": "freja sign ssn",
							"request": {
								"method": "POST",
								"header": [
									{
										"key": "Content-Type",
										"value": "application/x-www-form-urlencoded"
									},
									{
										"key": "Accept",
										"value": "*/*"
									}
								],
								"body": {
									"mode": "urlencoded",
									"urlencoded": [
										{
											"key": "userNonVisibleData",
											"value": "{% base64 'encode', 'normal', 'VETVA' %}",
											"type": "text"
										},
										{
											"key": "userVisibleData",
											"value": "{% base64 'encode', 'normal', 'VETVA' %}",
											"type": "text"
										},
										{
											"key": "personalNumber",
											"value": "191111111111 ",
											"type": "text"
										},
										{
											"key": "callbackUrl",
											"value": "https://yourdomain.com/callback",
											"type": "text"
										}
									]
								},
								"url": {
									"raw": "{{Server 1}}/?apiKey=API_KEY&authenticateServiceKey=SERVICE_KEY",
									"host": [
										"{{Server 1}}"
									],
									"path": [
										""
									],
									"query": [
										{
											"key": "apiKey",
											"value": "API_KEY"
										},
										{
											"key": "authenticateServiceKey",
											"value": "SERVICE_KEY"
										}
									]
								}
							},
							"response": [
								{
									"name": "Response_200",
									"originalRequest": {
										"method": "POST",
										"header": [
											{
												"key": "Content-Type",
												"value": "application/x-www-form-urlencoded"
											},
											{
												"key": "Accept",
												"value": "*/*"
											}
										],
										"body": {
											"mode": "urlencoded",
											"urlencoded": [
												{
													"key": "userNonVisibleData",
													"value": "{% base64 'encode', 'normal', 'VETVA' %}",
													"type": "text"
												},
												{
													"key": "userVisibleData",
													"value": "{% base64 'encode', 'normal', 'VETVA' %}",
													"type": "text"
												},
												{
													"key": "personalNumber",
													"value": "191111111111 ",
													"type": "text"
												},
												{
													"key": "callbackUrl",
													"value": "https://localhost.com/example",
													"type": "text"
												}
											]
										},
										"url": {
											"raw": "{{Server 1}}/?apiKey=API_KEY&authenticateServiceKey=SERVICE_KEY",
											"host": [
												"{{Server 1}}"
											],
											"path": [
												""
											],
											"query": [
												{
													"key": "apiKey",
													"value": "API_KEY"
												},
												{
													"key": "authenticateServiceKey",
													"value": "SERVICE_KEY"
												}
											]
										}
									},
									"code": 200,
									"_postman_previewlanguage": "Text",
									"header": [],
									"cookie": [],
									"body": ""
								}
							]
						},
						{
							"name": "freja sign gui",
							"request": {
								"method": "POST",
								"header": [
									{
										"key": "Content-Type",
										"value": "application/x-www-form-urlencoded"
									},
									{
										"key": "Accept",
										"value": "*/*"
									}
								],
								"body": {
									"mode": "urlencoded",
									"urlencoded": [
										{
											"key": "userNonVisibleData",
											"value": "{% base64 'encode', 'normal', 'VETVA' %}",
											"type": "text"
										},
										{
											"key": "userVisibleData",
											"value": "{% base64 'encode', 'normal', 'VETVA' %}",
											"type": "text"
										},
										{
											"key": "callbackUrl",
											"value": "https://yourdomain.com/callback",
											"type": "text"
										}
									]
								},
								"url": {
									"raw": "{{Server 1}}/?apiKey=API_KEY&authenticateServiceKey=SERVICE_KEY",
									"host": [
										"{{Server 1}}"
									],
									"path": [
										""
									],
									"query": [
										{
											"key": "apiKey",
											"value": "API_KEY"
										},
										{
											"key": "authenticateServiceKey",
											"value": "SERVICE_KEY"
										}
									]
								}
							},
							"response": [
								{
									"name": "Response_200",
									"originalRequest": {
										"method": "POST",
										"header": [
											{
												"key": "Content-Type",
												"value": "application/x-www-form-urlencoded"
											},
											{
												"key": "Accept",
												"value": "*/*"
											}
										],
										"body": {
											"mode": "urlencoded",
											"urlencoded": [
												{
													"key": "userNonVisibleData",
													"value": "{% base64 'encode', 'normal', 'VETVA' %}",
													"type": "text"
												},
												{
													"key": "userVisibleData",
													"value": "{% base64 'encode', 'normal', 'VETVA' %}",
													"type": "text"
												},
												{
													"key": "callbackUrl",
													"value": "https://localhost.com/example",
													"type": "text"
												}
											]
										},
										"url": {
											"raw": "{{Server 1}}/?apiKey=API_KEY&authenticateServiceKey=SERVICE_KEY",
											"host": [
												"{{Server 1}}"
											],
											"path": [
												""
											],
											"query": [
												{
													"key": "apiKey",
													"value": "API_KEY"
												},
												{
													"key": "authenticateServiceKey",
													"value": "SERVICE_KEY"
												}
											]
										}
									},
									"code": 200,
									"_postman_previewlanguage": "Text",
									"header": [],
									"cookie": [],
									"body": ""
								}
							]
						}
					],
					"protocolProfileBehavior": {},
					"_postman_isSubFolder": true
				}
			],
			"protocolProfileBehavior": {}
		}
	],
	"event": [
		{
			"listen": "prerequest",
			"script": {
				"id": "c115d80a-99eb-40cf-9c16-6cd95338330e",
				"type": "text/javascript",
				"exec": [
					""
				]
			}
		},
		{
			"listen": "test",
			"script": {
				"id": "758b6b23-c7f7-483a-8b91-55e5299b85d1",
				"type": "text/javascript",
				"exec": [
					""
				]
			}
		}
	],
	"variable": [
		{
			"id": "fb404ce6-6f66-430d-a665-34b9bb1fccfe",
			"key": "client_url",
			"value": " https://client.grandid.com/json1.1/FederatedLogin",
			"type": "string"
		},
		{
			"id": "31f5d82b-bfd5-4ccf-a29e-f1092557e9d4",
			"key": "api_key",
			"value": "API_KEY",
			"type": "string"
		},
		{
			"id": "fcfca425-96d9-4774-9754-762f528d9305",
			"key": "bankid_auth_key",
			"value": "SERVICE_KEY",
			"type": "string"
		},
		{
			"id": "d958bb68-a7bd-4564-8e41-0bf1bbc4a7f8",
			"key": "bankid_sign_key",
			"value": "SERVICE_KEY",
			"type": "string"
		},
		{
			"id": "43f34eef-78f6-4ebe-91d3-baa263f1377d",
			"key": "freja_auth_key",
			"value": "SERVICE_KEY",
			"type": "string"
		},
		{
			"id": "346adb84-f3e2-415c-a41b-3aeab724210f",
			"key": "freja_sign_key",
			"value": "SERVICE_KEY",
			"type": "string"
		},
		{
			"id": "978e6c3e-853f-425b-8023-3439c99eeb36",
			"key": "netid_enterprise_key",
			"value": "SERVICE_KEY",
			"type": "string"
		},
		{
			"id": "1591331c-bc77-4bfa-9b65-16d6a0a76569",
			"key": "netid_access_auth_key_this_dev",
			"value": "SERVICE_KEY",
			"type": "string"
		},
		{
			"id": "fa560d59-02b1-4ba7-b750-fcd14b858716",
			"key": "netid_access_auth_key_other_dev",
			"value": "SERVICE_KEY",
			"type": "string"
		},
		{
			"id": "98a6b977-c2e2-4c6a-b827-483c5dd89e5e",
			"key": "netid_access_auth_key_choice_dev",
			"value": "SERVICE_KEY",
			"type": "string"
		},
		{
			"id": "2fb8965e-1d90-4805-9364-e33f26754f23",
			"key": "netid_access_sign_key_this_dev",
			"value": "SERVICE_KEY",
			"type": "string"
		},
		{
			"id": "fadbf092-d4a4-49a1-8c82-6ede91b669ad",
			"key": "netid_access_sign_key_other_dev",
			"value": "SERVICE_KEY",
			"type": "string"
		},
		{
			"id": "d0b31f56-7fcf-4ef1-ab52-fecd4a069ce9",
			"key": "netid_access_sign_key_choice_dev",
			"value": "SERVICE_KEY",
			"type": "string"
		}
	],
	"protocolProfileBehavior": {}
}